{
  "profiles": {
    "CreditExchange.Tasks.ProcessRetryLenddo": {
      "commandName": "CreditExchange.Tasks.ProcessRetryLenddo",
      "environmentVariables": {
        "ASPNET_ENV": "Development",
        "LOG_FORMAT": "Plain",
        "RETRY-LENDDO_CONFIGURATION_HOST": "54.227.251.126",
        "RETRY-LENDDO_CONFIGURATION_PORT": "5008",
        "RETRY-LENDDO_EVENTHUB_HOST": "54.227.251.126",
        "RETRY-LENDDO_EVENTHUB_PORT": "5004",
        "RETRY-LENDDO_CRIF_SYNDICATION_HOST": "54.227.251.126",
        "RETRY-LENDDO_CRIF_SYNDICATION_PORT": "5103",
        "RETRY-LENDDO_TENANT_HOST": "54.227.251.126",
        "RETRY-LENDDO_TENANT_PORT": "5014",
        "RETRY-LENDDO_MONGO_CONNECTION": "mongodb://54.227.251.126:27017",
        "RETRY-LENDDO_NATS_URL": "54.227.251.126:4222",
        "TASK_TENANT": "ce-int"
      }
    }
  }
}