{
  "profiles": {
    "CreditExchange.Tasks.HunterFileExport": {
      "commandName": "CreditExchange.Tasks.HunterFileExport",
      "environmentVariables": {
        "ASPNET_ENV": "Development",
        "LOG_FORMAT": "Plain",
        "HUNTER-FILE-EXPORT_DATA_ATTRIBUTES_HOST": "10.102.0.13",
        "HUNTER-FILE-EXPORT_DATA_ATTRIBUTES_PORT": "7003",
        "HUNTER-FILE-EXPORT_DECISION_ENGINE_HOST": "10.102.0.13",
        "HUNTER-FILE-EXPORT_DECISION_ENGINE_PORT": "5076",
        "HUNTER-FILE-EXPORT_APPLICATIONFILTER_HOST": "10.102.0.13",
        "HUNTER-FILE-EXPORT_APPLICATIONFILTER_PORT": "6001",
        "HUNTER-FILE-EXPORT_CONFIGURATION_HOST": "10.102.0.13",
        "HUNTER-FILE-EXPORT_CONFIGURATION_PORT": "5008",
        "HUNTER-FILE-EXPORT_EVENTHUB_HOST": "10.102.0.13",
        "HUNTER-FILE-EXPORT_EVENTHUB_PORT": "5004",
        "HUNTER-FILE-EXPORT_DOCUMENT_MANAGER_HOST": "10.102.0.13",
        "HUNTER-FILE-EXPORT_DOCUMENT_MANAGER_PORT": "5050",
        "TASK_TENANT": "credit-exchange",
        "TASK_SCHEDULE": "0 0/5 * 1/1 * ? *"
      }
    }
  }
}